{
    "editor.fontFamily": "Cascadia Code PL",
    "editor.lineHeight": 19,
    "editor.fontSize": 13,
    "editor.cursorStyle": "line",
    "editor.cursorBlinking": "phase",
    "editor.renderWhitespace": "all",
    "search.exclude": {
        "**/node_modules": false,
        "**/bower_components": true
    },
    "editor.showFoldingControls": "always",
    "git.enabled": false,
    "window.titleBarStyle": "native",
    "breadcrumbs.enabled": true,
    "workbench.colorCustomizations": {
        "activityBarBadge.background": "#5C6BC0",
        "list.activeSelectionForeground": "#FFF",
        "list.inactiveSelectionForeground": "#5C6BC0",
        "list.highlightForeground": "#5C6BC0",
        "scrollbarSlider.activeBackground": "#5C6BC050",
        "editorSuggestWidget.highlightForeground": "#5C6BC0",
        "textLink.foreground": "#5C6BC0",
        "progressBar.background": "#5C6BC0",
        "pickerGroup.foreground": "#5C6BC0",
        "tab.activeBorder": "#5C6BC0",
        "notificationLink.foreground": "#5C6BC0",
        "editorWidget.resizeBorder": "#5C6BC0",
        "editorWidget.border": "#5C6BC0",
        "settings.modifiedItemForeground": "#5C6BC0",
        "panelTitle.activeBorder": "#5C6BC0"
    },
    "window.menuBarVisibility": "default",
    "window.smoothScrollingWorkaround": true,
    "explorer.confirmDelete": false,
    "terminal.integrated.shell.windows": "C:\\Windows\\System32\\cmd.exe",
    "window.zoomLevel": 0,
    "search.showLineNumbers": true,
    "workbench.activityBar.visible": true,
    "editor.cursorSmoothCaretAnimation": true,
    "editor.accessibilitySupport": "off",
    "[javascript]": {
        "editor.defaultFormatter": "HookyQR.beautify"
    },
    "todohighlight.isEnable": false,
    "workbench.colorTheme": "Monokai",
    "[scss]": {
        "editor.defaultFormatter": "michelemelluso.code-beautifier"
    },
    "workbench.iconTheme": "vscode-icons",
    "[html]": {
        "editor.defaultFormatter": "HookyQR.beautify"
    },
    "[css]": {
        "editor.defaultFormatter": "michelemelluso.code-beautifier"
    },
    "vsicons.dontShowNewVersionMessage": true,
    "[json]": {
        "editor.defaultFormatter": "vscode.json-language-features"
    },
    "editor.fontLigatures": true,
    "todo-tree.highlights.enabled": true,
    "files.associations": {
        "*.js": "javascriptreact"
    },
    "editor.wordWrap": "on",
    "git.ignoreLimitWarning": true
}